\relax 
\@writefile{toc}{\contentsline {section}{\numberline {1\relax .\kern .5em }Cele}{1}}
\@writefile{toc}{\contentsline {section}{\numberline {2\relax .\kern .5em }Opis problemu}{1}}
\@writefile{toc}{\contentsline {section}{\numberline {3\relax .\kern .5em }Opis klas u\IeC {\.z}ytych w implementacji}{2}}
\@writefile{toc}{\contentsline {section}{\numberline {4\relax .\kern .5em }Opis algorytm\IeC {\'o}w dla Puzzle 15}{2}}
\@writefile{toc}{\contentsline {subsection}{\numberline {4.1\relax .\kern .5em }BFS}{2}}
\@writefile{toc}{\contentsline {subsection}{\numberline {4.2\relax .\kern .5em }DFS}{2}}
\@writefile{toc}{\contentsline {subsection}{\numberline {4.3\relax .\kern .5em }IDFS}{2}}
\@writefile{toc}{\contentsline {subsection}{\numberline {4.4\relax .\kern .5em }A*}{2}}
\bibcite{one}{1}
\bibcite{two}{2}
\bibcite{three}{3}
\bibcite{four}{4}
\@writefile{toc}{\contentsline {section}{\numberline {5\relax .\kern .5em }Uzyskane wyniki}{3}}
\@writefile{lot}{\contentsline {table}{\numberline {1.}{\ignorespaces Uk\IeC {\l }adanka 1}}{3}}
\newlabel{my-label}{{1}{3}}
\@writefile{lot}{\contentsline {table}{\numberline {2.}{\ignorespaces Uk\IeC {\l }adanka 2}}{3}}
\newlabel{my-label}{{2}{3}}
\@writefile{toc}{\contentsline {section}{\numberline {6\relax .\kern .5em }Wnioski}{3}}
\@writefile{toc}{\contentsline {section}{Literatura}{3}}
